run_GA_72/failed_traces/a_pstate_enable_trace.vcd
$version Generated by Yosys-SMTBMC $end
$timescale 1ns $end
$var integer 32 t smt_step $end
$var event 1 ! smt_clock $end
$scope module top $end
$scope module _witness_ $end
$var wire 1 n0 anyinit_auto_proc_dlatch_cc_432_proc_dlatch_652 $end
$var wire 3 n1 anyinit_procdff_840 $end
$var wire 3 n2 anyseq_auto_setundef_cc_533_execute_872 $end
$var wire 3 n3 anyseq_auto_setundef_cc_533_execute_874 $end
$var wire 3 n4 anyseq_auto_setundef_cc_533_execute_876 $end
$var wire 3 n5 anyseq_auto_setundef_cc_533_execute_878 $end
$var wire 3 n6 anyseq_auto_setundef_cc_533_execute_880 $end
$var wire 3 n7 anyseq_auto_setundef_cc_533_execute_882 $end
$var wire 3 n8 anyseq_auto_setundef_cc_533_execute_884 $end
$var wire 3 n9 anyseq_auto_setundef_cc_533_execute_886 $end
$var wire 3 n10 anyseq_auto_setundef_cc_533_execute_888 $end
$var wire 3 n11 anyseq_auto_setundef_cc_533_execute_890 $end
$var wire 3 n12 anyseq_auto_setundef_cc_533_execute_892 $end
$var wire 3 n13 anyseq_auto_setundef_cc_533_execute_894 $end
$var wire 3 n14 anyseq_auto_setundef_cc_533_execute_896 $end
$var wire 3 n15 anyseq_auto_setundef_cc_533_execute_898 $end
$var wire 3 n16 anyseq_auto_setundef_cc_533_execute_900 $end
$var wire 3 n17 anyseq_auto_setundef_cc_533_execute_902 $end
$var wire 3 n18 anyseq_auto_setundef_cc_533_execute_904 $end
$var wire 1 n19 anyseq_auto_setundef_cc_533_execute_906 $end
$upscope $end
$var wire 1 n20 a_pstate_enable_EN $end
$var wire 1 n21 clk $end
$var wire 8 n22 d_in_0 $end
$var wire 8 n23 d_in_1 $end
$var wire 1 n24 d_o $end
$var wire 1 n25 d_o_reg $end
$var wire 1 n26 enable $end
$var wire 1 n27 f_past_valid $end
$var wire 2 n28 fmsv_init_cnt $end
$var wire 3 n29 nstate $end
$var wire 3 n30 pstate $end
$var wire 1 n31 rst $end
$var wire 1 n32 selection $end
$var wire 1 n33 selection_buf $end
$var wire 1 n34 wr_en $end
$var wire 1 n35 wr_en_reg $end
$upscope $end
$enddefinitions $end
#0
1!
b00000000000000000000000000000000 t
b1 n21
b1 n0
b000 n1
b000 n2
b000 n3
b000 n4
b000 n5
b000 n6
b000 n7
b100 n8
b010 n9
b000 n10
b000 n11
b000 n12
b000 n13
b011 n14
b000 n15
b100 n16
b010 n17
b000 n18
b0 n19
b0 n20
b00000001 n22
b00000001 n23
b1 n24
b1 n25
b1 n26
b0 n27
b00 n28
b001 n29
b000 n30
b0 n31
b0 n32
b0 n33
b0 n34
b0 n35
#5
b0 n21
#10
1!
b00000000000000000000000000000001 t
b1 n21
b1 n0
b000 n1
b000 n2
b000 n3
b000 n4
b000 n5
b000 n6
b000 n7
b100 n8
b010 n9
b000 n10
b000 n11
b000 n12
b000 n13
b011 n14
b000 n15
b100 n16
b010 n17
b000 n18
b0 n19
b1 n20
b00000001 n22
b00000001 n23
b1 n24
b1 n25
b1 n26
b1 n27
b01 n28
b001 n29
b000 n30
b0 n31
b0 n32
b0 n33
b0 n34
b0 n35
#15
b0 n21
#20
1!
b00000000000000000000000000000010 t
b1 n21
b1 n0
b000 n1
b000 n2
b000 n3
b000 n4
b000 n5
b000 n6
b000 n7
b100 n8
b010 n9
b000 n10
b000 n11
b000 n12
b000 n13
b011 n14
b000 n15
b100 n16
b010 n17
b000 n18
b0 n19
b1 n20
b00000001 n22
b00000000 n23
b1 n24
b1 n25
b1 n26
b1 n27
b10 n28
b001 n29
b000 n30
b1 n31
b0 n32
b0 n33
b0 n34
b0 n35
#25
b0 n21
#30
1!
b00000000000000000000000000000011 t
b1 n21
b1 n0
b001 n1
b000 n2
b000 n3
b000 n4
b000 n5
b000 n6
b000 n7
b100 n8
b010 n9
b000 n10
b000 n11
b000 n12
b000 n13
b011 n14
b000 n15
b000 n16
b010 n17
b000 n18
b0 n19
b1 n20
b00000000 n22
b01001101 n23
b1 n24
b0 n25
b0 n26
b1 n27
b11 n28
b011 n29
b001 n30
b1 n31
b1 n32
b0 n33
b0 n34
b1 n35
#35
b0 n21
#40
1!
b00000000000000000000000000000100 t
b1 n21
b0 n0
b000 n1
b000 n2
b000 n3
b000 n4
b000 n5
b000 n6
b000 n7
b100 n8
b010 n9
b000 n10
b000 n11
b000 n12
b000 n13
b011 n14
b000 n15
b100 n16
b010 n17
b000 n18
b0 n19
b1 n20
b00000001 n22
b00000001 n23
b0 n24
b0 n25
b1 n26
b1 n27
b11 n28
b001 n29
b000 n30
b0 n31
b0 n32
b1 n33
b1 n34
b0 n35
#45
b0 n21
#50
1!
b00000000000000000000000000000101 t
b1 n21
