run_GA_72/failed_traces/a_trans_011_to_111_trace.vcd
$version Generated by Yosys-SMTBMC $end
$timescale 1ns $end
$var integer 32 t smt_step $end
$var event 1 ! smt_clock $end
$scope module top $end
$scope module _witness_ $end
$var wire 1 n0 anyinit_auto_proc_dlatch_cc_432_proc_dlatch_1407 $end
$var wire 3 n1 anyinit_procdff_1746 $end
$var wire 1 n2 anyinit_procdff_1747 $end
$var wire 1 n3 anyinit_procdff_1748 $end
$var wire 3 n4 anyinit_procdff_1761 $end
$var wire 3 n5 anyseq_auto_setundef_cc_533_execute_1793 $end
$var wire 3 n6 anyseq_auto_setundef_cc_533_execute_1795 $end
$var wire 3 n7 anyseq_auto_setundef_cc_533_execute_1797 $end
$var wire 3 n8 anyseq_auto_setundef_cc_533_execute_1799 $end
$var wire 3 n9 anyseq_auto_setundef_cc_533_execute_1801 $end
$var wire 3 n10 anyseq_auto_setundef_cc_533_execute_1803 $end
$var wire 3 n11 anyseq_auto_setundef_cc_533_execute_1805 $end
$var wire 3 n12 anyseq_auto_setundef_cc_533_execute_1807 $end
$var wire 3 n13 anyseq_auto_setundef_cc_533_execute_1809 $end
$var wire 3 n14 anyseq_auto_setundef_cc_533_execute_1811 $end
$var wire 3 n15 anyseq_auto_setundef_cc_533_execute_1813 $end
$var wire 3 n16 anyseq_auto_setundef_cc_533_execute_1815 $end
$var wire 3 n17 anyseq_auto_setundef_cc_533_execute_1817 $end
$var wire 3 n18 anyseq_auto_setundef_cc_533_execute_1819 $end
$var wire 3 n19 anyseq_auto_setundef_cc_533_execute_1821 $end
$var wire 1 n20 anyseq_auto_setundef_cc_533_execute_1823 $end
$var wire 3 n21 anyseq_auto_setundef_cc_533_execute_1825 $end
$var wire 3 n22 anyseq_auto_setundef_cc_533_execute_1827 $end
$upscope $end
$var wire 1 n23 a_trans_011_to_111_EN $end
$var wire 1 n24 clk $end
$var wire 8 n25 d_in_0 $end
$var wire 8 n26 d_in_1 $end
$var wire 1 n27 d_o $end
$var wire 1 n28 d_o_reg $end
$var wire 1 n29 enable $end
$var wire 1 n30 f_past_valid $end
$var wire 2 n31 fmsv_init_cnt $end
$var wire 3 n32 nstate $end
$var wire 3 n33 pstate $end
$var wire 1 n34 rst $end
$var wire 1 n35 selection $end
$var wire 1 n36 selection_buf $end
$var wire 1 n37 wr_en $end
$var wire 1 n38 wr_en_reg $end
$upscope $end
$enddefinitions $end
#0
1!
b00000000000000000000000000000000 t
b1 n24
b0 n0
b000 n1
b0 n2
b0 n3
b000 n4
b000 n5
b000 n6
b000 n7
b000 n8
b001 n9
b010 n10
b000 n11
b010 n12
b000 n13
b000 n14
b000 n15
b000 n16
b010 n17
b010 n18
b001 n19
b0 n20
b000 n21
b000 n22
b0 n23
b00000000 n25
b00000001 n26
b0 n27
b0 n28
b1 n29
b0 n30
b00 n31
b000 n32
b000 n33
b0 n34
b0 n35
b0 n36
b0 n37
b0 n38
#5
b0 n24
#10
1!
b00000000000000000000000000000001 t
b1 n24
b0 n0
b000 n1
b0 n2
b0 n3
b000 n4
b000 n5
b000 n6
b000 n7
b000 n8
b001 n9
b010 n10
b000 n11
b010 n12
b000 n13
b000 n14
b000 n15
b000 n16
b010 n17
b010 n18
b001 n19
b0 n20
b000 n21
b000 n22
b0 n23
b00000000 n25
b00000001 n26
b0 n27
b0 n28
b1 n29
b1 n30
b01 n31
b000 n32
b000 n33
b0 n34
b0 n35
b0 n36
b0 n37
b0 n38
#15
b0 n24
#20
1!
b00000000000000000000000000000010 t
b1 n24
b0 n0
b000 n1
b0 n2
b0 n3
b000 n4
b000 n5
b000 n6
b000 n7
b000 n8
b001 n9
b010 n10
b000 n11
b010 n12
b000 n13
b000 n14
b000 n15
b000 n16
b000 n17
b010 n18
b001 n19
b0 n20
b000 n21
b000 n22
b0 n23
b00000000 n25
b00000001 n26
b0 n27
b1 n28
b1 n29
b1 n30
b10 n31
b001 n32
b000 n33
b1 n34
b1 n35
b0 n36
b0 n37
b1 n38
#25
b0 n24
#30
1!
b00000000000000000000000000000011 t
b1 n24
b1 n0
b000 n1
b1 n2
b0 n3
b001 n4
b000 n5
b000 n6
b000 n7
b000 n8
b001 n9
b010 n10
b000 n11
b010 n12
b000 n13
b000 n14
b000 n15
b000 n16
b010 n17
b010 n18
b111 n19
b0 n20
b000 n21
b000 n22
b0 n23
b10000010 n25
b01111100 n26
b1 n27
b0 n28
b1 n29
b1 n30
b11 n31
b011 n32
b001 n33
b1 n34
b1 n35
b1 n36
b1 n37
b1 n38
#35
b0 n24
#40
1!
b00000000000000000000000000000100 t
b1 n24
b0 n0
b001 n1
b1 n2
b0 n3
b011 n4
b000 n5
b000 n6
b000 n7
b000 n8
b001 n9
b010 n10
b000 n11
b111 n12
b000 n13
b000 n14
b000 n15
b010 n16
b100 n17
b010 n18
b001 n19
b1 n20
b000 n21
b000 n22
b0 n23
b00010010 n25
b10110010 n26
b0 n27
b0 n28
b1 n29
b1 n30
b11 n31
b111 n32
b011 n33
b1 n34
b0 n35
b1 n36
b1 n37
b0 n38
#45
b0 n24
#50
1!
b00000000000000000000000000000101 t
b1 n24
b0 n0
b011 n1
b0 n2
b0 n3
b000 n4
b000 n5
b000 n6
b000 n7
b000 n8
b001 n9
b010 n10
b000 n11
b000 n12
b000 n13
b000 n14
b000 n15
b000 n16
b010 n17
b100 n18
b001 n19
b0 n20
b000 n21
b000 n22
b1 n23
b00000000 n25
b11111110 n26
b0 n27
b0 n28
b1 n29
b1 n30
b11 n31
b000 n32
b000 n33
b1 n34
b1 n35
b0 n36
b0 n37
b1 n38
#55
b0 n24
#60
1!
b00000000000000000000000000000110 t
b1 n24
b0 n0
b000 n1
b1 n2
b0 n3
b000 n4
b000 n5
b000 n6
b000 n7
b000 n8
b001 n9
b010 n10
b000 n11
b010 n12
b000 n13
b000 n14
b000 n15
b000 n16
b010 n17
b010 n18
b001 n19
b0 n20
b000 n21
b000 n22
b0 n23
b00000000 n25
b00000001 n26
b0 n27
b0 n28
b1 n29
b1 n30
b11 n31
b000 n32
b000 n33
b1 n34
b0 n35
b1 n36
b1 n37
b0 n38
#65
b0 n24
#70
1!
b00000000000000000000000000000111 t
b1 n24
