run_GA_72/failed_traces/a_trans_001_to_000_sel_r3_trace.vcd
$version Generated by Yosys-SMTBMC $end
$timescale 1ns $end
$var integer 32 t smt_step $end
$var event 1 ! smt_clock $end
$scope module top $end
$scope module _witness_ $end
$var wire 1 n0 anyinit_auto_proc_dlatch_cc_432_proc_dlatch_709 $end
$var wire 1 n1 anyinit_procdff_878 $end
$var wire 1 n2 anyinit_procdff_879 $end
$var wire 1 n3 anyinit_procdff_880 $end
$var wire 3 n4 anyinit_procdff_881 $end
$var wire 3 n5 anyinit_procdff_912 $end
$var wire 3 n6 anyseq_auto_setundef_cc_533_execute_944 $end
$var wire 3 n7 anyseq_auto_setundef_cc_533_execute_946 $end
$var wire 3 n8 anyseq_auto_setundef_cc_533_execute_948 $end
$var wire 3 n9 anyseq_auto_setundef_cc_533_execute_950 $end
$var wire 3 n10 anyseq_auto_setundef_cc_533_execute_952 $end
$var wire 3 n11 anyseq_auto_setundef_cc_533_execute_954 $end
$var wire 3 n12 anyseq_auto_setundef_cc_533_execute_956 $end
$var wire 3 n13 anyseq_auto_setundef_cc_533_execute_958 $end
$var wire 3 n14 anyseq_auto_setundef_cc_533_execute_960 $end
$var wire 3 n15 anyseq_auto_setundef_cc_533_execute_962 $end
$var wire 3 n16 anyseq_auto_setundef_cc_533_execute_964 $end
$var wire 3 n17 anyseq_auto_setundef_cc_533_execute_966 $end
$var wire 3 n18 anyseq_auto_setundef_cc_533_execute_968 $end
$var wire 3 n19 anyseq_auto_setundef_cc_533_execute_970 $end
$var wire 3 n20 anyseq_auto_setundef_cc_533_execute_972 $end
$var wire 3 n21 anyseq_auto_setundef_cc_533_execute_974 $end
$var wire 3 n22 anyseq_auto_setundef_cc_533_execute_976 $end
$var wire 1 n23 anyseq_auto_setundef_cc_533_execute_978 $end
$upscope $end
$var wire 1 n24 a_trans_001_to_000_sel_r3_EN $end
$var wire 1 n25 clk $end
$var wire 8 n26 d_in_0 $end
$var wire 8 n27 d_in_1 $end
$var wire 1 n28 d_o $end
$var wire 1 n29 d_o_reg $end
$var wire 1 n30 enable $end
$var wire 1 n31 f_past_valid $end
$var wire 2 n32 fmsv_init_cnt $end
$var wire 3 n33 nstate $end
$var wire 3 n34 pstate $end
$var wire 1 n35 rst $end
$var wire 1 n36 selection $end
$var wire 1 n37 selection_buf $end
$var wire 1 n38 wr_en $end
$var wire 1 n39 wr_en_reg $end
$upscope $end
$enddefinitions $end
#0
1!
b00000000000000000000000000000000 t
b1 n25
b1 n0
b1 n1
b1 n2
b0 n3
b000 n4
b000 n5
b000 n6
b000 n7
b000 n8
b000 n9
b000 n10
b000 n11
b001 n12
b010 n13
b000 n14
b000 n15
b101 n16
b000 n17
b010 n18
b000 n19
b000 n20
b010 n21
b111 n22
b0 n23
b0 n24
b00000001 n26
b00000001 n27
b1 n28
b1 n29
b0 n30
b0 n31
b00 n32
b001 n33
b000 n34
b0 n35
b0 n36
b0 n37
b1 n38
b0 n39
#5
b0 n25
#10
1!
b00000000000000000000000000000001 t
b1 n25
b1 n0
b0 n1
b0 n2
b0 n3
b000 n4
b000 n5
b000 n6
b000 n7
b000 n8
b000 n9
b000 n10
b000 n11
b001 n12
b010 n13
b000 n14
b000 n15
b101 n16
b000 n17
b010 n18
b000 n19
b000 n20
b010 n21
b111 n22
b0 n23
b0 n24
b00000001 n26
b00000001 n27
b1 n28
b1 n29
b0 n30
b1 n31
b01 n32
b001 n33
b000 n34
b0 n35
b0 n36
b0 n37
b0 n38
b0 n39
#15
b0 n25
#20
1!
b00000000000000000000000000000010 t
b1 n25
b1 n0
b0 n1
b0 n2
b0 n3
b000 n4
b000 n5
b000 n6
b000 n7
b000 n8
b000 n9
b000 n10
b000 n11
b001 n12
b010 n13
b000 n14
b000 n15
b101 n16
b000 n17
b010 n18
b000 n19
b001 n20
b010 n21
b111 n22
b0 n23
b0 n24
b00000001 n26
b00000001 n27
b1 n28
b1 n29
b1 n30
b1 n31
b10 n32
b001 n33
b000 n34
b1 n35
b1 n36
b0 n37
b0 n38
b1 n39
#25
b0 n25
#30
1!
b00000000000000000000000000000011 t
b1 n25
b1 n0
b1 n1
b1 n2
b0 n3
b000 n4
b001 n5
b000 n6
b000 n7
b000 n8
b000 n9
b000 n10
b000 n11
b001 n12
b010 n13
b000 n14
b000 n15
b101 n16
b000 n17
b010 n18
b000 n19
b000 n20
b010 n21
b111 n22
b0 n23
b0 n24
b00000011 n26
b00010011 n27
b1 n28
b1 n29
b1 n30
b1 n31
b11 n32
b010 n33
b001 n34
b1 n35
b1 n36
b1 n37
b1 n38
b1 n39
#35
b0 n25
#40
1!
b00000000000000000000000000000100 t
b1 n25
b1 n0
b1 n1
b1 n2
b1 n3
b001 n4
b010 n5
b000 n6
b000 n7
b000 n8
b000 n9
b000 n10
b000 n11
b001 n12
b010 n13
b000 n14
b000 n15
b000 n16
b000 n17
b000 n18
b000 n19
b000 n20
b010 n21
b001 n22
b0 n23
b1 n24
b00000000 n26
b11111000 n27
b1 n28
b0 n29
b1 n30
b1 n31
b11 n32
b100 n33
b010 n34
b1 n35
b1 n36
b1 n37
b1 n38
b1 n39
#45
b0 n25
#50
1!
b00000000000000000000000000000101 t
b1 n25
b0 n0
b1 n1
b1 n2
b1 n3
b010 n4
b100 n5
b000 n6
b000 n7
b000 n8
b000 n9
b000 n10
b000 n11
b001 n12
b010 n13
b000 n14
b000 n15
b101 n16
b000 n17
b010 n18
b000 n19
b000 n20
b010 n21
b111 n22
b0 n23
b0 n24
b00000001 n26
b00000001 n27
b0 n28
b0 n29
b1 n30
b1 n31
b11 n32
b001 n33
b100 n34
b1 n35
b1 n36
b1 n37
b1 n38
b1 n39
#55
b0 n25
#60
1!
b00000000000000000000000000000110 t
b1 n25
